ML Final Project
…
# Loop over each variable
var_imp <- sapply(seq_len(nrow(bool_predictor_exclude)), function(row) {
    this_coeff_path <- bool_predictor_exclude[row,]
    if(sum(this_coeff_path) == ncol(bool_predictor_exclude)){ return(0)}else{
    return(ncol(bool_predictor_exclude) - which.min(this_coeff_path) + 1)}
})

# Create a dataset of this information and sort
var_imp_data <- tibble(
    var_name = rownames(bool_predictor_exclude),
    var_imp = var_imp
)
var_imp_data %>% arrange(desc(var_imp))

## # A tibble: 25 x 2
##    var_name var_imp
##    <chr>      <dbl>
##  1 PTS           82
##  2 AST           75
##  3 WS            74
##  4 Age           69
##  5 DRB           68
##  6 FT            68
##  7 GS            63
##  8 G             55
##  9 X3P           55
## 10 FG.           52
## # ... with 15 more rows
…
# Custom Function to get OOB predictions, true observed outcomes and add a user-provided model label
rf_OOB_output <- function(fit_model, model_label, truth){
    tibble(
          .pred_class = fit_model %>% extract_fit_engine() %>% pluck('predictions'), #OOB predictions
          class = truth,
          label = model_label
      )
}

#check out the function output
rf_OOB_output(data_fit_mtry2,2, nba2021per36 %>% pull(Pos))

## # A tibble: 363 x 3
##    .pred_class class label
##    <fct>       <fct> <dbl>
##  1 C           PF        2
##  2 PF          C         2
##  3 C           C         2
##  4 PF          C         2
##  5 SG          SG        2
##  6 SG          SG        2
##  7 C           C         2
##  8 SF          PF        2
##  9 PF          PF        2
## 10 C           PF        2
## # ... with 353 more rows
…
